{
    "dependencies": [
        {
            "name": "grafonnet-lib",
            "source": {
                "git": {
                    "remote": "https://github.com/grafana/grafonnet-lib",
                    "subdir": ""
                }
            },
            "version": "cb9e43f59558ff6338a76ae1806a0fb4b70b1b16"
        },
        {
            "name": "kubernetes-mixin",
            "source": {
                "git": {
                    "remote": "https://github.com/kubernetes-monitoring/kubernetes-mixin",
                    "subdir": ""
                }
            },
            "version": "23416282b86f75bff14bf94732c397764d7ba9db"
        },
        {
            "name": "grafonnet",
            "source": {
                "git": {
                    "remote": "https://github.com/grafana/grafonnet-lib",
                    "subdir": "grafonnet"
                }
            },
            "version": "cb9e43f59558ff6338a76ae1806a0fb4b70b1b16"
        },
        {
            "name": "grafana-builder",
            "source": {
                "git": {
                    "remote": "https://github.com/grafana/jsonnet-libs",
                    "subdir": "grafana-builder"
                }
            },
            "version": "250bf5499d81e5e77e1e5ed2242c89ad27485aec"
        }
    ]
}
